{
  "project_info": {
    "project_number": "457299249623",
    "firebase_url": "https://beki3app.firebaseio.com",
    "project_id": "beki3app",
    "storage_bucket": "beki3app.appspot.com"
  },
  "client": [
    {
      "client_info": {
        "mobilesdk_app_id": "1:457299249623:android:d3abab0b43177f85dfe392",
        "android_client_info": {
          "package_name": "com.android.beki_3"
        }
      },
      "oauth_client": [
        {
          "client_id": "457299249623-prqr0087815mv5f3ugoq1sq7bmltf2nk.apps.googleusercontent.com",
          "client_type": 1,
          "android_info": {
            "package_name": "com.android.beki_3",
            "certificate_hash": "2e9ab0718d82a84bfaada63b4a85f3f5899c79dc"
          }
        },
        {
          "client_id": "457299249623-esu0bn7e4p7s2lmpt191c22s0kgrgtei.apps.googleusercontent.com",
          "client_type": 3
        }
      ],
      "api_key": [
        {
          "current_key": "AIzaSyAbiBhOipEslFLyYJE7d8bQugMeLkYfCB8"
        }
      ],
      "services": {
        "appinvite_service": {
          "other_platform_oauth_client": [
            {
              "client_id": "457299249623-esu0bn7e4p7s2lmpt191c22s0kgrgtei.apps.googleusercontent.com",
              "client_type": 3
            }
          ]
        }
      }
    }
  ],
  "configuration_version": "1"
}